<svg width="18px" height="24px" viewBox="0 0 18 24" version="1.1" xmlns="http://www.w3.org/2000/svg" xmlns:xlink="http://www.w3.org/1999/xlink">
    <desc>Created with Sketch.</desc>
    <defs></defs>
    <g id="Symbols" stroke="none" stroke-width="1" fill="none" fill-rule="evenodd">
        <g id="tab/diet-on" transform="translate(-24.000000, -2.000000)" fill-rule="nonzero" fill="#000000">
            <g id="Shape">
                <path d="M30.5245001,12.5678646 L29.1312992,13.4082874 L30.194334,23.3883082 C30.2659691,24.2960803 29.8222231,25.1672826 29.0458473,25.6431211 C28.2694714,26.1189596 27.291768,26.1189596 26.5153921,25.6431211 C25.7390163,25.1672826 25.2952703,24.2960803 25.3669054,23.3883082 L26.4299402,13.4082874 L25.0367393,12.5678646 C24.3714779,12.1685403 23.975068,11.4398738 24.0012183,10.664407 L24.2513442,2.66038026 C24.2662116,2.2883529 24.5743952,1.99568938 24.946694,2.00004806 L24.946694,2.00004806 C25.3170234,1.99980313 25.6210736,2.29279693 25.63454,2.66288152 L25.8146306,7.88300769 C25.8185666,8.16829393 26.0318625,8.40718532 26.3148823,8.44328956 C26.4670687,8.46008565 26.6193721,8.41271584 26.7351855,8.31256568 C26.850999,8.21241552 26.9198498,8.06854136 26.9251893,7.91552405 L27.10528,2.69039536 C27.10528,2.31050848 27.4132391,2.00254932 27.793126,2.00254932 C28.1730129,2.00254932 28.480972,2.31050848 28.480972,2.69039536 L28.6610626,7.91552405 C28.6667338,8.06519543 28.7331702,8.20608819 28.8450381,8.30568366 C28.956906,8.40527912 29.1045383,8.45497078 29.2538609,8.44328956 C29.5368807,8.40718532 29.7501766,8.16829393 29.7541125,7.88300769 L29.9292006,2.66288152 C29.9426303,2.2937645 30.2451858,2.00114696 30.6145454,2.00004806 L30.6145454,2.00004806 C30.9848748,1.99980313 31.288925,2.29279693 31.3023915,2.66288152 L31.5525173,10.6669082 C31.5793049,11.4399535 31.1860814,12.1670819 30.5245001,12.5678646 L30.5245001,12.5678646 Z M41.5100268,8.09061213 C41.5100268,4.72641966 39.8041686,2.00004806 37.7031116,2.00004806 C35.6020546,2.00004806 33.8961964,4.72641966 33.8961964,8.09061213 C33.8961964,10.6669082 34.8966997,12.843003 36.3174144,13.7309497 L35.2893973,23.3883082 C35.2177621,24.2960803 35.6615081,25.1672826 36.437884,25.6431211 C37.2142599,26.1189596 38.1919633,26.1189596 38.9683391,25.6431211 C39.744715,25.1672826 40.188461,24.2960803 40.1168259,23.3883082 L39.0888087,13.7309497 C40.5095234,12.843003 41.5100268,10.6669082 41.5100268,8.09061213 Z"></path>
            </g>
        </g>
    </g>
</svg>
