
<svg width="24px" height="22px" viewBox="0 0 24 22" version="1.1" xmlns="http://www.w3.org/2000/svg" xmlns:xlink="http://www.w3.org/1999/xlink">
    <!-- Generator: Sketch 47.1 (45422) - http://www.bohemiancoding.com/sketch -->
    <desc>Created with Sketch.</desc>
    <defs></defs>
    <g id="Symbols" stroke="none" stroke-width="1" fill="none" fill-rule="evenodd">
        <g id="tab/home-off" transform="translate(-20.000000, 0.000000)" stroke-width="1.5" stroke="#6A6C75" fill-rule="nonzero">
            <g id="Shape">
                <path d="M43.3131737,10.7855799 C43.3093333,10.7865973 43.3076785,10.7863871 43.3087951,10.7837359 L43.3131737,10.7855799 Z M42.1091673,10.7738095 L43.3697224,10.7738095 C43.3457324,10.7738095 43.3255712,10.7818017 43.3154509,10.7849199 C43.3146236,10.7851748 43.3138634,10.7853971 43.3131737,10.7855799 L44,11.0748299 L43.25,11.0748299 C43.25,10.9365032 43.2486575,10.8719524 43.243064,10.8022227 C43.242092,10.7901055 43.2414401,10.7806579 43.2418757,10.7738095 C43.243052,10.7553133 43.2521603,10.7557762 43.2843169,10.7738095 C43.3027263,10.7841335 43.3286898,10.8002161 43.3650437,10.8217967 L43.2404831,10.7291744 L32.64272,0.992782691 C32.3019016,0.669072436 31.7475506,0.669072436 31.3976323,1.00128323 L20.8751972,10.6600312 C20.8277313,10.7163853 20.7988305,10.7527748 20.7803019,10.7738095 L21.9402849,10.7738095 C22.7639103,10.7738095 23.3205625,11.4346968 23.3205625,12.2721088 L23.3205625,19.755102 C23.3205625,20.5639485 23.8984099,21.25 24.4613952,21.25 L39.588057,21.25 C40.1510422,21.25 40.7288897,20.5639485 40.7288897,19.755102 L40.7288897,12.2721088 C40.7288897,11.4346968 41.2855419,10.7738095 42.1091673,10.7738095 Z"></path>
            </g>
        </g>
    </g>
</svg>
