
<svg width="24px" height="24px" viewBox="0 0 24 24" version="1.1" xmlns="http://www.w3.org/2000/svg" xmlns:xlink="http://www.w3.org/1999/xlink">
    <!-- Generator: Sketch 47.1 (45422) - http://www.bohemiancoding.com/sketch -->
    <desc>Created with Sketch.</desc>
    <defs></defs>
    <g id="Symbols" stroke="none" stroke-width="1" fill="none" fill-rule="evenodd">
        <g id="tab/profile-off" transform="translate(-20.000000, 1.000000)" stroke="#6A6C75" stroke-width="1.5">
            <g id="Group" transform="translate(21.000000, 0.000000)">
                <path d="M15.3164,11.6231 C14.0944,12.4871 12.6074,13.0001 11.0004,13.0001 C9.3924,13.0001 7.9054,12.4871 6.6834,11.6231 C2.7544,12.8101 0.000400000001,15.5661 0.000400000001,18.7781 C0.000400000001,23.0741 22.0004,23.0741 22.0004,18.7781 C22.0004,15.5661 19.2454,12.8101 15.3164,11.6231" id="Fill-1"></path>
                <path d="M16.5,5.5 C16.5,2.463 14.038,0 11,0 C7.962,0 5.5,2.463 5.5,5.5 C5.5,8.537 7.962,11 11,11 C14.038,11 16.5,8.537 16.5,5.5" id="Fill-4"></path>
            </g>
        </g>
    </g>
</svg>
